<?xml version="1.0" encoding="UTF-8"?>
<svg width="70px" height="67px" viewBox="0 0 70 67" version="1.1" xmlns="http://www.w3.org/2000/svg" xmlns:xlink="http://www.w3.org/1999/xlink">
    <!-- Generator: Sketch 52.5 (67469) - http://www.bohemiancoding.com/sketch -->
    <title>Group 35</title>
    <desc>Created with Sketch.</desc>
    <defs>
        <path d="M29.90385,0.082875 L1.867875,7.595175 C0.577575,7.941975 -0.1887,9.2667 0.156825,10.558275 L6.07665,32.648925 L6.85695,35.563575 L30.045375,35.563575 C31.983375,35.563575 33.569475,37.1484 33.569475,39.0864 C33.569475,41.0244 31.98465,42.609225 30.04665,42.609225 C31.98465,42.6105 33.569475,44.195325 33.569475,46.133325 C33.569475,48.07005 31.983375,49.65615 30.045375,49.65615 L29.038125,49.65615 C30.976125,49.65615 32.56095,51.24225 32.56095,53.18025 C32.56095,55.116975 30.976125,56.703075 29.038125,56.703075 L28.0347,56.703075 C29.971425,56.705625 31.554975,58.289175 31.554975,60.2259 C31.554975,62.1639 29.968875,63.75 28.030875,63.75 L37.047675,63.75 L44.302425,63.75 C44.804775,63.75 45.268875,63.597 45.6552,63.3369 C45.91275,63.162225 46.1346,62.94165 46.308,62.6841 C46.569375,62.297775 46.722375,61.8324 46.722375,61.331325 L46.722375,54.0753 L46.722375,15.375225 L46.722375,8.1192 C46.722375,7.618125 46.569375,7.15275 46.308,6.766425 C46.1346,6.508875 45.91275,6.287025 45.6552,6.113625 C45.268875,5.853525 44.804775,5.700525 44.302425,5.700525 L37.047675,5.700525 L33.913725,5.700525 L32.865675,1.79265 C32.57625,0.712725 31.5996,0 30.532425,0 C30.3246,0 30.114225,0.026775 29.90385,0.082875 Z M16.749675,49.65615 L29.038125,49.65615 L16.749675,49.65615 Z" id="path-1"></path>
        <path d="M29.90385,0.082875 L1.867875,7.595175 C0.577575,7.941975 -0.1887,9.2667 0.156825,10.558275 L6.07665,32.648925 L6.85695,35.563575 L30.045375,35.563575 C31.983375,35.563575 33.569475,37.1484 33.569475,39.0864 C33.569475,41.0244 31.98465,42.609225 30.04665,42.609225 C31.98465,42.6105 33.569475,44.195325 33.569475,46.133325 C33.569475,48.07005 31.983375,49.65615 30.045375,49.65615 L29.038125,49.65615 C30.976125,49.65615 32.56095,51.24225 32.56095,53.18025 C32.56095,55.116975 30.976125,56.703075 29.038125,56.703075 L28.0347,56.703075 C29.971425,56.705625 31.554975,58.289175 31.554975,60.2259 C31.554975,62.1639 29.968875,63.75 28.030875,63.75 L37.047675,63.75 L44.302425,63.75 C44.804775,63.75 45.268875,63.597 45.6552,63.3369 C45.91275,63.162225 46.1346,62.94165 46.308,62.6841 C46.569375,62.297775 46.722375,61.8324 46.722375,61.331325 L46.722375,54.0753 L46.722375,15.375225 L46.722375,8.1192 C46.722375,7.618125 46.569375,7.15275 46.308,6.766425 C46.1346,6.508875 45.91275,6.287025 45.6552,6.113625 C45.268875,5.853525 44.804775,5.700525 44.302425,5.700525 L37.047675,5.700525 L33.913725,5.700525 L32.865675,1.79265 C32.57625,0.712725 31.5996,0 30.532425,0 C30.3246,0 30.114225,0.026775 29.90385,0.082875 Z M16.749675,49.65615 L29.038125,49.65615 L16.749675,49.65615 Z" id="path-3"></path>
        <path d="M29.90385,0.082875 L1.867875,7.595175 C0.577575,7.941975 -0.1887,9.2667 0.156825,10.558275 L6.07665,32.648925 L6.85695,35.563575 L30.045375,35.563575 C31.983375,35.563575 33.569475,37.1484 33.569475,39.0864 C33.569475,41.0244 31.98465,42.609225 30.04665,42.609225 C31.98465,42.6105 33.569475,44.195325 33.569475,46.133325 C33.569475,48.07005 31.983375,49.65615 30.045375,49.65615 L29.038125,49.65615 C30.976125,49.65615 32.56095,51.24225 32.56095,53.18025 C32.56095,55.116975 30.976125,56.703075 29.038125,56.703075 L28.0347,56.703075 C29.971425,56.705625 31.554975,58.289175 31.554975,60.2259 C31.554975,62.1639 29.968875,63.75 28.030875,63.75 L37.047675,63.75 L44.302425,63.75 C44.804775,63.75 45.268875,63.597 45.6552,63.3369 C45.91275,63.162225 46.1346,62.94165 46.308,62.6841 C46.569375,62.297775 46.722375,61.8324 46.722375,61.331325 L46.722375,54.0753 L46.722375,15.375225 L46.722375,8.1192 C46.722375,7.618125 46.569375,7.15275 46.308,6.766425 C46.1346,6.508875 45.91275,6.287025 45.6552,6.113625 C45.268875,5.853525 44.804775,5.700525 44.302425,5.700525 L37.047675,5.700525 L33.913725,5.700525 L32.865675,1.79265 C32.57625,0.712725 31.5996,0 30.532425,0 C30.3246,0 30.114225,0.026775 29.90385,0.082875 Z M16.749675,49.65615 L29.038125,49.65615 L16.749675,49.65615 Z" id="path-5"></path>
        <path d="M29.90385,0.082875 L1.867875,7.595175 C0.577575,7.941975 -0.1887,9.2667 0.156825,10.558275 L6.07665,32.648925 L6.85695,35.563575 L30.045375,35.563575 C31.983375,35.563575 33.569475,37.1484 33.569475,39.0864 C33.569475,41.0244 31.98465,42.609225 30.04665,42.609225 C31.98465,42.6105 33.569475,44.195325 33.569475,46.133325 C33.569475,48.07005 31.983375,49.65615 30.045375,49.65615 L29.038125,49.65615 C30.976125,49.65615 32.56095,51.24225 32.56095,53.18025 C32.56095,55.116975 30.976125,56.703075 29.038125,56.703075 L28.0347,56.703075 C29.971425,56.705625 31.554975,58.289175 31.554975,60.2259 C31.554975,62.1639 29.968875,63.75 28.030875,63.75 L37.047675,63.75 L44.302425,63.75 C44.804775,63.75 45.268875,63.597 45.6552,63.3369 C45.91275,63.162225 46.1346,62.94165 46.308,62.6841 C46.569375,62.297775 46.722375,61.8324 46.722375,61.331325 L46.722375,54.0753 L46.722375,15.375225 L46.722375,8.1192 C46.722375,7.618125 46.569375,7.15275 46.308,6.766425 C46.1346,6.508875 45.91275,6.287025 45.6552,6.113625 C45.268875,5.853525 44.804775,5.700525 44.302425,5.700525 L37.047675,5.700525 L33.913725,5.700525 L32.865675,1.79265 C32.57625,0.712725 31.5996,0 30.532425,0 C30.3246,0 30.114225,0.026775 29.90385,0.082875 Z M16.749675,49.65615 L29.038125,49.65615 L16.749675,49.65615 Z" id="path-7"></path>
        <path d="M29.90385,0.082875 L1.867875,7.595175 C0.577575,7.941975 -0.1887,9.2667 0.156825,10.558275 L6.07665,32.648925 L6.85695,35.563575 L30.045375,35.563575 C31.983375,35.563575 33.569475,37.1484 33.569475,39.0864 C33.569475,41.0244 31.98465,42.609225 30.04665,42.609225 C31.98465,42.6105 33.569475,44.195325 33.569475,46.133325 C33.569475,48.07005 31.983375,49.65615 30.045375,49.65615 L29.038125,49.65615 C30.976125,49.65615 32.56095,51.24225 32.56095,53.18025 C32.56095,55.116975 30.976125,56.703075 29.038125,56.703075 L28.0347,56.703075 C29.971425,56.705625 31.554975,58.289175 31.554975,60.2259 C31.554975,62.1639 29.968875,63.75 28.030875,63.75 L37.047675,63.75 L44.302425,63.75 C44.804775,63.75 45.268875,63.597 45.6552,63.3369 C45.91275,63.162225 46.1346,62.94165 46.308,62.6841 C46.569375,62.297775 46.722375,61.8324 46.722375,61.331325 L46.722375,54.0753 L46.722375,15.375225 L46.722375,8.1192 C46.722375,7.618125 46.569375,7.15275 46.308,6.766425 C46.1346,6.508875 45.91275,6.287025 45.6552,6.113625 C45.268875,5.853525 44.804775,5.700525 44.302425,5.700525 L37.047675,5.700525 L33.913725,5.700525 L32.865675,1.79265 C32.57625,0.712725 31.5996,0 30.532425,0 C30.3246,0 30.114225,0.026775 29.90385,0.082875 Z M16.749675,49.65615 L29.038125,49.65615 L16.749675,49.65615 Z" id="path-9"></path>
        <path d="M29.90385,0.082875 L1.867875,7.595175 C0.577575,7.941975 -0.1887,9.2667 0.156825,10.558275 L6.07665,32.648925 L6.85695,35.563575 L30.045375,35.563575 C31.983375,35.563575 33.569475,37.1484 33.569475,39.0864 C33.569475,41.0244 31.98465,42.609225 30.04665,42.609225 C31.98465,42.6105 33.569475,44.195325 33.569475,46.133325 C33.569475,48.07005 31.983375,49.65615 30.045375,49.65615 L29.038125,49.65615 C30.976125,49.65615 32.56095,51.24225 32.56095,53.18025 C32.56095,55.116975 30.976125,56.703075 29.038125,56.703075 L28.0347,56.703075 C29.971425,56.705625 31.554975,58.289175 31.554975,60.2259 C31.554975,62.1639 29.968875,63.75 28.030875,63.75 L37.047675,63.75 L44.302425,63.75 C44.804775,63.75 45.268875,63.597 45.6552,63.3369 C45.91275,63.162225 46.1346,62.94165 46.308,62.6841 C46.569375,62.297775 46.722375,61.8324 46.722375,61.331325 L46.722375,54.0753 L46.722375,15.375225 L46.722375,8.1192 C46.722375,7.618125 46.569375,7.15275 46.308,6.766425 C46.1346,6.508875 45.91275,6.287025 45.6552,6.113625 C45.268875,5.853525 44.804775,5.700525 44.302425,5.700525 L37.047675,5.700525 L33.913725,5.700525 L32.865675,1.79265 C32.57625,0.712725 31.5996,0 30.532425,0 C30.3246,0 30.114225,0.026775 29.90385,0.082875 Z M16.749675,49.65615 L29.038125,49.65615 L16.749675,49.65615 Z" id="path-11"></path>
        <path d="M29.90385,0.082875 L1.867875,7.595175 C0.577575,7.941975 -0.1887,9.2667 0.156825,10.558275 L6.07665,32.648925 L6.85695,35.563575 L30.045375,35.563575 C31.983375,35.563575 33.569475,37.1484 33.569475,39.0864 C33.569475,41.0244 31.98465,42.609225 30.04665,42.609225 C31.98465,42.6105 33.569475,44.195325 33.569475,46.133325 C33.569475,48.07005 31.983375,49.65615 30.045375,49.65615 L29.038125,49.65615 C30.976125,49.65615 32.56095,51.24225 32.56095,53.18025 C32.56095,55.116975 30.976125,56.703075 29.038125,56.703075 L28.0347,56.703075 C29.971425,56.705625 31.554975,58.289175 31.554975,60.2259 C31.554975,62.1639 29.968875,63.75 28.030875,63.75 L37.047675,63.75 L44.302425,63.75 C44.804775,63.75 45.268875,63.597 45.6552,63.3369 C45.91275,63.162225 46.1346,62.94165 46.308,62.6841 C46.569375,62.297775 46.722375,61.8324 46.722375,61.331325 L46.722375,54.0753 L46.722375,15.375225 L46.722375,8.1192 C46.722375,7.618125 46.569375,7.15275 46.308,6.766425 C46.1346,6.508875 45.91275,6.287025 45.6552,6.113625 C45.268875,5.853525 44.804775,5.700525 44.302425,5.700525 L37.047675,5.700525 L33.913725,5.700525 L32.865675,1.79265 C32.57625,0.712725 31.5996,0 30.532425,0 C30.3246,0 30.114225,0.026775 29.90385,0.082875 Z M16.749675,49.65615 L29.038125,49.65615 L16.749675,49.65615 Z" id="path-13"></path>
        <path d="M29.90385,0.082875 L1.867875,7.595175 C0.577575,7.941975 -0.1887,9.2667 0.156825,10.558275 L6.07665,32.648925 L6.85695,35.563575 L30.045375,35.563575 C31.983375,35.563575 33.569475,37.1484 33.569475,39.0864 C33.569475,41.0244 31.98465,42.609225 30.04665,42.609225 C31.98465,42.6105 33.569475,44.195325 33.569475,46.133325 C33.569475,48.07005 31.983375,49.65615 30.045375,49.65615 L29.038125,49.65615 C30.976125,49.65615 32.56095,51.24225 32.56095,53.18025 C32.56095,55.116975 30.976125,56.703075 29.038125,56.703075 L28.0347,56.703075 C29.971425,56.705625 31.554975,58.289175 31.554975,60.2259 C31.554975,62.1639 29.968875,63.75 28.030875,63.75 L37.047675,63.75 L44.302425,63.75 C44.804775,63.75 45.268875,63.597 45.6552,63.3369 C45.91275,63.162225 46.1346,62.94165 46.308,62.6841 C46.569375,62.297775 46.722375,61.8324 46.722375,61.331325 L46.722375,54.0753 L46.722375,15.375225 L46.722375,8.1192 C46.722375,7.618125 46.569375,7.15275 46.308,6.766425 C46.1346,6.508875 45.91275,6.287025 45.6552,6.113625 C45.268875,5.853525 44.804775,5.700525 44.302425,5.700525 L37.047675,5.700525 L33.913725,5.700525 L32.865675,1.79265 C32.57625,0.712725 31.5996,0 30.532425,0 C30.3246,0 30.114225,0.026775 29.90385,0.082875 Z M16.749675,49.65615 L29.038125,49.65615 L16.749675,49.65615 Z" id="path-15"></path>
    </defs>
    <g id="Template" stroke="none" stroke-width="1" fill="none" fill-rule="evenodd">
        <g id="Group-32" transform="translate(-23.000000, -52.000000)">
            <g id="Group-35" transform="translate(24.000000, 53.000000)">
                <g id="Group-25" transform="translate(20.825000, 0.425000)">
                    <g id="Group-3">
                        <mask id="mask-2" fill="white">
                            <use xlink:href="#path-1"></use>
                        </mask>
                        <g id="Clip-2"></g>
                        <path d="M29.90385,0.0830025 L1.867875,7.5953025 C0.577575,7.9408275 -0.1887,9.2668275 0.1581,10.5571275 L12.85965,57.9603525 L12.85965,8.1193275 C12.85965,6.7831275 13.942125,5.7006525 15.278325,5.7006525 L33.91245,5.7006525 L32.865675,1.7927775 C32.52015,0.5024775 31.19415,-0.2625225 29.90385,0.0830025 Z" id="Stroke-1" stroke="#232C46" stroke-width="2" stroke-linecap="round" stroke-linejoin="round" mask="url(#mask-2)"></path>
                    </g>
                    <g id="Group-6">
                        <mask id="mask-4" fill="white">
                            <use xlink:href="#path-3"></use>
                        </mask>
                        <g id="Clip-5"></g>
                        <path d="M46.72161,8.118945 L46.72161,61.33107 C46.72161,62.66727 45.639135,63.749745 44.302935,63.749745 L15.27756,63.749745 C13.942635,63.749745 12.858885,62.66727 12.858885,61.33107 L12.858885,8.118945 C12.858885,6.782745 13.942635,5.70027 15.27756,5.70027 L44.302935,5.70027 C45.639135,5.70027 46.72161,6.782745 46.72161,8.118945 Z" id="Stroke-4" stroke="#232C46" stroke-width="2" stroke-linecap="round" stroke-linejoin="round" mask="url(#mask-4)"></path>
                    </g>
                    <g id="Group-9">
                        <mask id="mask-6" fill="white">
                            <use xlink:href="#path-5"></use>
                        </mask>
                        <g id="Clip-8"></g>
                        <path d="M29.790375,23.840715 C35.802,23.840715 40.67505,28.713765 40.67505,34.72539 C40.67505,40.737015 35.802,45.610065 29.790375,45.610065 C23.77875,45.610065 18.9057,40.737015 18.9057,34.72539 C18.9057,28.713765 23.77875,23.840715 29.790375,23.840715 Z" id="Stroke-7" stroke="#EEC72C" stroke-width="2" stroke-linecap="round" stroke-linejoin="round" mask="url(#mask-6)"></path>
                    </g>
                    <g id="Group-12">
                        <mask id="mask-8" fill="white">
                            <use xlink:href="#path-7"></use>
                        </mask>
                        <g id="Clip-11"></g>
                        <path d="M32.1693975,31.5171075 C30.9594225,31.5171075 29.8998975,32.5842825 29.6474475,34.0530825 L29.3618475,35.3140575 C29.1425475,36.5967075 28.2258225,37.5274575 27.1815975,37.5274575 C25.9524975,37.5274575 24.9516225,36.2690325 24.9516225,34.7250075 C24.9516225,33.1797075 25.9524975,31.9238325 27.1815975,31.9238325 C27.2147475,31.9238325 27.2415225,31.8957825 27.2415225,31.8626325 C27.2415225,31.8294825 27.2147475,31.8027075 27.1815975,31.8027075 C25.9027725,31.8027075 24.8636475,33.0815325 24.8368725,34.6650825 L23.2596975,34.6650825 C23.2265475,34.6650825 23.1997725,34.6918575 23.1997725,34.7250075 C23.1997725,34.7581575 23.2265475,34.7849325 23.2596975,34.7849325 L24.8368725,34.7849325 C24.8636475,36.3684825 25.9027725,37.6473075 27.1815975,37.6473075 C28.2844725,37.6473075 29.2521975,36.6744825 29.4804225,35.3382825 L29.7660225,34.0760325 C30.0082725,32.6620575 31.0193475,31.6369575 32.1693975,31.6369575 C33.5247225,31.6369575 34.6275975,33.0228825 34.6275975,34.7250075 C34.6275975,36.4284075 33.5247225,37.8130575 32.1693975,37.8130575 C32.1362475,37.8130575 32.1094725,37.8398325 32.1094725,37.8729825 C32.1094725,37.9061325 32.1362475,37.9341825 32.1693975,37.9341825 C33.5744475,37.9341825 34.7168475,36.5253075 34.7436225,34.7849325 L36.3207975,34.7849325 C36.3539475,34.7849325 36.3807225,34.7581575 36.3807225,34.7250075 C36.3807225,34.6918575 36.3539475,34.6650825 36.3207975,34.6650825 L34.7436225,34.6650825 C34.7168475,32.9234325 33.5744475,31.5171075 32.1693975,31.5171075 Z" id="Stroke-10" stroke="#EEC72C" stroke-width="2" stroke-linecap="round" stroke-linejoin="round" mask="url(#mask-8)"></path>
                    </g>
                    <g id="Group-15">
                        <mask id="mask-10" fill="white">
                            <use xlink:href="#path-9"></use>
                        </mask>
                        <g id="Clip-14"></g>
                        <path d="M12.8592675,54.075045 L12.8592675,61.33107 C12.8592675,62.66727 13.9417425,63.749745 15.2779425,63.749745 L22.5339675,63.749745 C22.5339675,58.40622 18.2027925,54.075045 12.8592675,54.075045 Z" id="Stroke-13" stroke="#232C46" stroke-width="2" stroke-linecap="round" stroke-linejoin="round" mask="url(#mask-10)"></path>
                    </g>
                    <g id="Group-18">
                        <mask id="mask-12" fill="white">
                            <use xlink:href="#path-11"></use>
                        </mask>
                        <g id="Clip-17"></g>
                        <path d="M22.5342225,5.7001425 L15.2781975,5.7001425 C13.9419975,5.7001425 12.8595225,6.7826175 12.8595225,8.1188175 L12.8595225,15.3748425 C18.2030475,15.3748425 22.5342225,11.0436675 22.5342225,5.7001425 Z" id="Stroke-16" stroke="#232C46" stroke-width="2" stroke-linecap="round" stroke-linejoin="round" mask="url(#mask-12)"></path>
                    </g>
                    <g id="Group-21">
                        <mask id="mask-14" fill="white">
                            <use xlink:href="#path-13"></use>
                        </mask>
                        <g id="Clip-20"></g>
                        <path d="M37.046655,63.75 L44.30268,63.75 C45.63888,63.75 46.721355,62.667525 46.721355,61.331325 L46.721355,54.0753 C41.37783,54.0753 37.046655,58.406475 37.046655,63.75 Z" id="Stroke-19" stroke="#232C46" stroke-width="2" stroke-linecap="round" stroke-linejoin="round" mask="url(#mask-14)"></path>
                    </g>
                    <g id="Group-24">
                        <mask id="mask-16" fill="white">
                            <use xlink:href="#path-15"></use>
                        </mask>
                        <g id="Clip-23"></g>
                        <path d="M44.3028075,5.7001425 L37.0467825,5.7001425 C37.0467825,11.0436675 41.3779575,15.3748425 46.7214825,15.3748425 L46.7214825,8.1188175 C46.7214825,6.7826175 45.6390075,5.7001425 44.3028075,5.7001425 Z" id="Stroke-22" stroke="#232C46" stroke-width="2" stroke-linecap="round" stroke-linejoin="round" mask="url(#mask-16)"></path>
                    </g>
                </g>
                <g id="Group-34" stroke="#232C46" stroke-linecap="round" stroke-linejoin="round" stroke-width="2">
                    <path d="M67.13351,7.1915525 C66.96011,6.9340025 66.736985,6.7121525 66.48071,6.5387525 C66.094385,6.2773775 65.62901,6.1256525 65.127935,6.1256525 L57.87191,6.1256525 L54.73796,6.1256525 L53.691185,2.2177775 C53.34566,0.9274775 52.01966,0.1624775 50.72936,0.5080025 L22.693385,8.0203025 C21.403085,8.3658275 20.63681,9.6918275 20.982335,10.9821275 L26.90216,33.0727775 L27.68246,35.9887025 L50.86961,35.9887025 C52.80761,35.9887025 54.39371,37.5735275 54.39371,39.5115275 C54.39371,41.4495275 52.808885,43.0343525 50.870885,43.0356275 C52.808885,43.0356275 54.39371,44.6204525 54.39371,46.5584525 C54.39371,48.4964525 52.80761,50.0812775 50.86961,50.0812775 L37.57391,50.0812775 L49.863635,50.0812775 C51.801635,50.0812775 53.38646,51.6673775 53.38646,53.6053775 C53.38646,55.5433775 51.801635,57.1282025 49.863635,57.1282025 L48.86021,57.1282025 C50.79566,57.1307525 52.380485,58.7143025 52.380485,60.6523025 C52.380485,62.5890275 50.794385,64.1751275 48.856385,64.1751275 L57.87191,64.1751275 L65.127935,64.1751275 C65.62901,64.1751275 66.094385,64.0234025 66.48071,63.7620275 C66.736985,63.5873525 66.96011,63.3655025 67.13351,63.1092275 C67.39361,62.7229025 67.54661,62.2575275 67.54661,61.7564525 L67.54661,54.5004275 L67.54661,15.8003525 L67.54661,8.5443275 C67.54661,8.0432525 67.39361,7.5778775 67.13351,7.1915525 Z" id="Stroke-26"></path>
                    <path d="M7.47167,64.175 L3.44522,64.175 C1.77752,64.175 0.424745,62.822225 0.424745,61.154525 L0.424745,41.021 C0.424745,39.3533 1.77752,38.0018 3.44522,38.0018 L7.47167,38.0018 C9.13937,38.0018 10.492145,39.3533 10.492145,41.021 L10.492145,61.154525 C10.492145,62.822225 9.13937,64.175 7.47167,64.175 Z" id="Stroke-28"></path>
                    <path d="M25.64552,28.3843475 C22.76657,28.3843475 20.834945,30.4217975 19.02062,34.1715725 C16.31507,39.7598975 12.651995,41.0221475 10.492145,41.0221475 L10.492145,54.1087475 C10.492145,59.6677475 14.99927,64.1748725 20.55827,64.1748725 L27.10157,64.1748725 L48.856895,64.1748725 C50.794895,64.1748725 52.37972,62.5900475 52.37972,60.6520475 C52.37972,58.7140475 50.794895,57.1279475 48.856895,57.1279475 L37.573145,57.1292225 L49.86287,57.1292225 C51.80087,57.1292225 53.38697,55.5431225 53.38697,53.6051225 C53.38697,51.6671225 51.80087,50.0822975 49.86287,50.0822975 L37.573145,50.0810225 L50.87012,50.0810225 C52.80812,50.0810225 54.39422,48.4961975 54.39422,46.5581975 C54.39422,44.6201975 52.809395,43.0353725 50.871395,43.0353725 C52.809395,43.0340975 54.39422,41.4492725 54.39422,39.5112725 C54.39422,37.5732725 52.80812,35.9884475 50.87012,35.9884475 L27.68297,35.9884475 L25.64552,28.3843475 Z" id="Stroke-30"></path>
                    <polygon id="Stroke-32" points="37.574675 43.095425 50.87165 43.095425 50.87165 42.975575 37.574675 42.975575"></polygon>
                </g>
            </g>
        </g>
    </g>
</svg>