<?xml version="1.0" encoding="UTF-8"?>
<svg width="71px" height="77px" viewBox="0 0 71 77" version="1.1" xmlns="http://www.w3.org/2000/svg" xmlns:xlink="http://www.w3.org/1999/xlink">
    <!-- Generator: Sketch 52.5 (67469) - http://www.bohemiancoding.com/sketch -->
    <title>Group 21</title>
    <desc>Created with Sketch.</desc>
    <g id="Template" stroke="none" stroke-width="1" fill="none" fill-rule="evenodd" stroke-linecap="round" stroke-linejoin="round">
        <g id="Conto-Lingotto---FAQ-Categorie" transform="translate(-685.000000, -159.000000)" stroke="#4662B0" stroke-width="2">
            <g id="Group-3" transform="translate(396.000000, 160.000000)">
                <g id="Group-21" transform="translate(290.000000, 0.000000)">
                    <polygon id="Stroke-1" points="23.1795 65.181 42.819 65.181 42.819 57.303 23.1795 57.303"></polygon>
                    <g id="Group-20">
                        <path d="M42.8181,65.1816 C42.8181,70.6041 38.4216,75.0006 32.9991,75.0006 C27.5766,75.0006 23.1816,70.6041 23.1816,65.1816 L42.8181,65.1816 Z" id="Stroke-2"></path>
                        <path d="M23.1801,57.435 C23.1801,48.3465 8.5191,42.9225 8.5191,28.0665 C8.5191,13.0005 19.9836,3 32.9991,3 C46.0161,3 57.4791,13.0005 57.4791,28.0665 C57.4791,42.9225 42.8196,48.3465 42.8196,57.435 L23.1801,57.435 Z" id="Stroke-4"></path>
                        <path d="M33,38.05515 C29.769,38.05515 27.141,35.94615 27.141,33.35115 L27.2895,33.35115 C27.2895,35.86215 29.8515,37.90515 33,37.90515 C36.147,37.90515 38.7105,35.86215 38.7105,33.35115 C38.7105,31.21815 36.813,29.34615 34.2,28.89915 L31.8825,28.37415 C29.4405,27.95715 27.666,26.19615 27.666,24.18765 C27.666,21.82665 30.0585,19.90515 33,19.90515 C35.9415,19.90515 38.334,21.82665 38.334,24.18765 L38.184,24.18765 C38.184,21.90915 35.8575,20.05515 33,20.05515 C30.1425,20.05515 27.816,21.90915 27.816,24.18765 C27.816,26.12265 29.538,27.82215 31.911,28.22715 L34.2285,28.75365 C36.9105,29.21115 38.859,31.14615 38.859,33.35115 C38.859,35.94615 36.231,38.05515 33,38.05515 Z" id="Stroke-6"></path>
                        <polygon id="Stroke-8" points="32.925 19.98 33.075 19.98 33.075 16.98 32.925 16.98"></polygon>
                        <polygon id="Stroke-10" points="32.925 40.98 33.075 40.98 33.075 37.98 32.925 37.98"></polygon>
                        <path d="M57.4752,6.7005 C59.6472,7.614 61.3857,9.3525 62.2992,11.5245 C62.5662,12.159 63.4332,12.159 63.7002,11.5245 C64.6137,9.3525 66.3522,7.614 68.5242,6.7005 C69.1587,6.4335 69.1587,5.5665 68.5242,5.2995 C66.3522,4.386 64.6137,2.6475 63.7002,0.4755 C63.4332,-0.159 62.5662,-0.159 62.2992,0.4755 C61.3857,2.6475 59.6472,4.386 57.4752,5.2995 C56.8407,5.5665 56.8407,6.4335 57.4752,6.7005 Z" id="Stroke-11"></path>
                        <polygon id="Stroke-12" points="2.925 7.5 3.075 7.5 3.075 6 2.925 6"></polygon>
                        <polygon id="Stroke-13" points="2.925 12 3.075 12 3.075 10.5 2.925 10.5"></polygon>
                        <polygon id="Stroke-14" points="0 9.075 1.5 9.075 1.5 8.925 0 8.925"></polygon>
                        <polygon id="Stroke-15" points="4.5 9.075 6 9.075 6 8.925 4.5 8.925"></polygon>
                        <polygon id="Stroke-16" points="4.425 50.664 4.575 50.664 4.575 48.4125 4.425 48.4125"></polygon>
                        <polygon id="Stroke-17" points="4.425 57.4125 4.575 57.4125 4.575 55.1625 4.425 55.1625"></polygon>
                        <polygon id="Stroke-18" points="0 52.9875 2.25 52.9875 2.25 52.8375 0 52.8375"></polygon>
                        <polygon id="Stroke-19" points="6.75 52.9875 9 52.9875 9 52.8375 6.75 52.8375"></polygon>
                    </g>
                </g>
            </g>
        </g>
    </g>
</svg>