<?xml version="1.0" encoding="UTF-8"?>
<svg width="58px" height="64px" viewBox="0 0 58 64" version="1.1" xmlns="http://www.w3.org/2000/svg" xmlns:xlink="http://www.w3.org/1999/xlink">
    <!-- Generator: Sketch 52.5 (67469) - http://www.bohemiancoding.com/sketch -->
    <title>Group 16</title>
    <desc>Created with Sketch.</desc>
    <defs>
        <polygon id="path-1" points="0 63.75 57.375 63.75 57.375 0 0 0"></polygon>
    </defs>
    <g id="Template" stroke="none" stroke-width="1" fill="none" fill-rule="evenodd">
        <g id="Conto-Lingotto---Home" transform="translate(-584.000000, -3545.000000)">
            <g id="Group-44" transform="translate(560.000000, 3491.000000)">
                <g id="Group-16" transform="translate(24.000000, 54.250000)">
                    <path d="M8.925,57.375 C8.925,60.18 11.22,62.475 14.025,62.475 L42.075,62.475 C44.88,62.475 47.175,60.18 47.175,57.375 L47.175,52.275 L8.925,52.275 L8.925,57.375 Z" id="Stroke-1" stroke="#232C46" stroke-width="2" stroke-linecap="round" stroke-linejoin="round"></path>
                    <path d="M42.075,1.275 L14.025,1.275 C11.22,1.275 8.925,3.57 8.925,6.375 L8.925,10.2 L47.175,10.2 L47.175,6.375 C47.175,3.57 44.88,1.275 42.075,1.275 Z" id="Stroke-3" stroke="#232C46" stroke-width="2" stroke-linecap="round" stroke-linejoin="round"></path>
                    <mask id="mask-2" fill="white">
                        <use xlink:href="#path-1"></use>
                    </mask>
                    <g id="Clip-6"></g>
                    <polygon id="Stroke-5" stroke="#232C46" stroke-width="2" stroke-linecap="round" stroke-linejoin="round" mask="url(#mask-2)" points="8.925 52.275 47.175 52.275 47.175 10.2 8.925 10.2"></polygon>
                    <path d="M28.6875,57.375 C28.6875,57.7269 28.4019,58.0125 28.05,58.0125 C27.6981,58.0125 27.4125,57.7269 27.4125,57.375 C27.4125,57.0231 27.6981,56.7375 28.05,56.7375 C28.4019,56.7375 28.6875,57.0231 28.6875,57.375 Z" id="Stroke-7" stroke="#232C46" stroke-width="2" stroke-linecap="round" stroke-linejoin="round" mask="url(#mask-2)"></path>
                    <path d="M47.175,30.6001275 L47.175,52.2751275 L47.175,53.5501275 L47.175,57.3751275 C47.175,60.1801275 44.88,62.4751275 42.075,62.4751275 L47.175,62.4751275 C52.10415,62.4751275 56.1,58.4792775 56.1,53.5501275 L56.1,21.6751275 C51.17085,21.6751275 47.175,25.6709775 47.175,30.6001275 Z" id="Stroke-8" stroke="#232C46" stroke-width="2" stroke-linecap="round" stroke-linejoin="round" mask="url(#mask-2)"></path>
                    <path d="M8.925,26.775 L5.1,26.775 C2.987325,26.775 1.275,28.487325 1.275,30.6 C1.275,32.712675 2.987325,34.425 5.1,34.425 L8.925,34.425 L8.925,26.775 Z" id="Stroke-9" stroke="#232C46" stroke-width="2" stroke-linecap="round" stroke-linejoin="round" mask="url(#mask-2)"></path>
                    <path d="M8.925,34.425 L5.1,34.425 C2.987325,34.425 1.275,36.137325 1.275,38.25 C1.275,40.362675 2.987325,42.075 5.1,42.075 L8.925,42.075 L8.925,34.425 Z" id="Stroke-10" stroke="#232C46" stroke-width="2" stroke-linecap="round" stroke-linejoin="round" mask="url(#mask-2)"></path>
                    <path d="M8.925,42.075 L5.1,42.075 C2.987325,42.075 1.275,43.787325 1.275,45.9 C1.275,48.012675 2.987325,49.725 5.1,49.725 L8.925,49.725 L8.925,42.075 Z" id="Stroke-11" stroke="#232C46" stroke-width="2" stroke-linecap="round" stroke-linejoin="round" mask="url(#mask-2)"></path>
                    <path d="M8.925,49.725 L5.1,49.725 C2.987325,49.725 1.275,51.437325 1.275,53.55 C1.275,55.662675 2.987325,57.375 5.1,57.375 L8.925,57.375 L8.925,49.725 Z" id="Stroke-12" stroke="#232C46" stroke-width="2" stroke-linecap="round" stroke-linejoin="round" mask="url(#mask-2)"></path>
                    <path d="M35.5991475,43.46373 L20.5005975,43.46373 C19.0980975,43.46373 17.9505975,42.31623 17.9505975,40.91373 L17.9505975,31.23903 C17.9505975,29.83653 19.0980975,28.68903 20.5005975,28.68903 L35.5991475,28.68903 C37.0016475,28.68903 38.1491475,29.83653 38.1491475,31.23903 L38.1491475,40.91373 C38.1491475,42.31623 37.0016475,43.46373 35.5991475,43.46373 Z" id="Stroke-13" stroke="#EEC72C" stroke-width="2" stroke-linecap="round" stroke-linejoin="round" mask="url(#mask-2)"></path>
                    <path d="M33.7875,28.6891575 L22.3125,28.6891575 L22.3125,22.3141575 C22.3125,19.1585325 24.894375,16.5766575 28.05,16.5766575 C31.205625,16.5766575 33.7875,19.1585325 33.7875,22.3141575 L33.7875,28.6891575 Z" id="Stroke-14" stroke="#EEC72C" stroke-width="2" stroke-linecap="round" stroke-linejoin="round" mask="url(#mask-2)"></path>
                    <path d="M30.71169,36.5645775 C30.71169,35.0945025 29.519565,33.9023775 28.04949,33.9023775 C26.579415,33.9023775 25.388565,35.0945025 25.388565,36.5645775 C25.388565,38.0346525 26.579415,39.2267775 28.04949,39.2267775 C29.519565,39.2267775 30.71169,38.0346525 30.71169,36.5645775 Z" id="Stroke-15" stroke="#EEC72C" stroke-width="2" stroke-linecap="round" stroke-linejoin="round" mask="url(#mask-2)"></path>
                </g>
            </g>
        </g>
    </g>
</svg>